{
  "cviceni": {
    "version": {
      "global": "<%= version %>",
      "content": 2
    },
    "language": "cs",
    "katalog": [
      "test",
      "public"
    ],
    "slug": "jak-mely-deti-travit-volny-cas",
    "nazev": "Jak měly děti trávit volný čas?",
    "autor": [
      "Pavla Sýkorová"
    ],
    "klicovaSlova": [
      "propaganda",
      "každodennost",
      "dobové perspektivy",
      "otevíráme otázku"
    ],
    "anotace": {
      "ucitel": "Cvičení za pomoci fotografie dětí v pražském Domě pionýrů z roku 1950 tematizuje vliv poúnorové komunistické ideologie v oblasti výchovy dětí a mládeže. Žáci na základě analýzy fotografie formulují hypotézu, kterou následně revidují za pomoci dobového popisku. Cvičení lze využít k doplnění výkladu o proměnách československé společnosti v 50. letech 20. století.",
      "verejna": "Skončí škola, máte volné odpoledne. Jak ho strávíte? Pojďte se podívat, jaká byla představa stráveného odpoledne po škole v 50. letech. Co byste na to říkali?"
    },
    "trvani": 30,
    "funkce": [
      "lupa",
      "cteni",
      "text",
      "svg"
    ],
    "pdf": {
      "doporucenyPostup": "jak-mely-deti-travit-volny-cas.pdf"
    },
    "uvodniObrazek": "jak-mely-deti-travit-volny-cas/pic-00-1024h.jpg",
    "id": 70
  },
  "slajd": [
    {
      "zadani": {
        "hlavni": "Prohlédněte si fotografii.",
        "rozsirujici": ""
      },
      "napoveda": {
        "aktivity": [
          "lupa"
        ],
        "text": "Při kliknutí levým tlačítkem do obrazu lupa přiblíží část obrazu ve výřezu."
      },
      "prameny": [
        "jak-mely-deti-travit-volny-cas/pic-00-1024h.jpg"
      ]
    },
    {
      "class": [
        "half-slide-previous"
      ],
      "zadani": {
        "hlavni": "Označte důležité prvky na fotografii a popište je.",
        "rozsirujici": ""
      },
      "napoveda": {
        "aktivity": ["svg"],
        "text": "Kliknutím na snímek levým tlačítkem myši označujete bod. Nakliknutím na bod pravým tlačítkem otevřete menu s nabídkou úkonů: (T) doplnit textový komentář, (X) smazat nakliknutý objekt."
      },
      "svg": {
        "soubory": [
          {
            "id": "svg-1",
            "soubor": "jak-mely-deti-travit-volny-cas/pic-00-1024h.jpg",
            "funkce": [
              "text",
              "znacky"
            ],
            "barvy": [
              "blue"
            ]
          }
        ]
      }
    },
    {
      "class": [
        "half-slide-active"
      ],
      "zadani": {
        "hlavni": "Co se děje na fotografii?",
        "rozsirujici": ""
      },
      "napoveda": {
        "aktivity": [
          "text"
        ],
        "text": "Do boxu pro text zapisujete odpověď na otázku, nebo jiný komentář (dle zadání)."
      },
      "uzivatelskyText": {
        "otazky": [
          {
            "id": "text-1",
            "zadani": "Co dělají děti na snímku?",
            "instrukce": "Myslím si, že…",
            "minDelka": 10,
            "maxDelka": 400
          }
        ]
      }
    },
    {
      "class": "half-slide-previous",
      "zadani": {
        "hlavni": "Přečtěte si dobový popisek. Červeně na fotografii označte důležité prvky zmíněné v textu a popište je.",
        "rozsirujici": ""
      },
      "napoveda": {
        "aktivity": [
          "svg",
          "cteni"
        ],
        "text": "Kliknutím na snímek levým tlačítkem myši označujete bod. Nakliknutím na bod pravým tlačítkem otevřete menu s nabídkou úkonů: změnit barvu bodu na červenou, (T) doplnit textový komentář, (X) smazat nakliknutý objekt."
      },
      "popisky": [
        "Pionýrský dům v Praze-Karlíně. První pionýrský dům v Praze, vybudován svépomocí dobrovolných brigád, pomocí různých národních podniků, které se postaraly o zřízení dílen a kluboven a převzaly patronát nad jednotlivými zájmovými kroužky. Na snímku: v sále Družby se Sovětským svazem mají pionýři k dispozici sovětské časopisy, knihy a mapy. Část 33. pionýrské skupiny si prohlíží album sovětských snímků. Na stěně heslo „Učit se, učit se, učit se“, fotografie K. Gottwalda, V. I. Lenina a J. V. Stalina a státní znak SSSR. Foto Rostislav Novák, 12. listopadu 1950. Zdroj: ČTK"
      ],
      "svg": {
        "soubory": [
          {
            "id": "svg-2",
            "soubor": "jak-mely-deti-travit-volny-cas/pic-00-1024h.jpg",
            "funkce": [
              "text",
              "znacky"
            ],
            "barvy": [
              "red"
            ],
            "duplikovat": [
              "svg-1"
            ]
          }
        ]
      }
    },
    {
      "class": [
        "half-slide-active"
      ],
      "zadani": {
        "hlavni": "Zodpovězte otázky.",
        "rozsirujici": ""
      },
      "napoveda": {
        "aktivity": [
          "text"
        ],
        "text": "Do boxu pro text zapisujete odpověď na otázku, nebo jiný komentář (dle zadání)."
      },
      "uzivatelskyText": {
        "otazky": [
          {
            "id": "text-2",
            "zadani": "Jak měly děti trávit svůj volný čas?",
            "instrukce": "Myslím si, že…",
            "minDelka": 10,
            "maxDelka": 400,
            "vyska": 6
          },
          {
            "id": "text-3",
            "zadani": "Co byste se o dětech na fotografii chtěli dozvědět?",
            "instrukce": "Myslím si, že…",
            "minDelka": 10,
            "maxDelka": 400,
            "vyska": 6
          }
        ]
      }
    }
  ]
}
