{
  "cviceni": {
    "version": {
      "global": "<%= version %>",
      "content": 2
    },
    "katalog": [
      "test",
      "public"
    ],
    "language": "cs",
    "slug": "proc-demonstrovali",
    "nazev": "Proč demonstrovali?",
    "autor": [
      "Tereza Vávrová",
      "Kamil Činátl"
    ],
    "klicovaSlova": [
      "národnostní problémy ČSR",
      "nacismus",
      "německá sociální demokracie",
      "dobové perspektivy",
      "otevíráme otázku"
    ],
    "anotace": {
      "ucitel": "Cvičení pracuje s fotografiemi z prvomájového průvodu německých sociálních demokratů, který se konal krátce před parlamentními volbami v roce 1935 v Českém Krumlově. Žáci prostřednictvím analýzy fotografií s neobvyklými transparenty pátrají po identitě demonstrantů a objevují zapomenutý příběh předválečných německých antifašistů a vnímají situaci v Československu jejich perspektivou.",
      "verejna": "„Es lebe Masaryk!” Co to kruci znamená? Ať žije Masaryk? A proč je to německy?! Přeneste se prostřednictvím fotografií na jednu prvomájovou demonstraci a objevte zapomenutý příběh bojovníků za demokracii v Československu."
    },
    "trvani": 30,
    "funkce": [
      "lupa",
      "text",
      "svg",
      "znacky"
    ],
    "uvodniObrazek": "proc-demonstrovali/pic-00-1280w.jpg",
    "pdf": {
      "doporucenyPostup": "proc-demonstrovali.pdf"
    },
    "id": 65
  },
  "slajd": [
    {
      "zadani": {
        "hlavni": "Prohlédněte si fotografii.",
        "rozsirujici": ""
      },
      "napoveda": {
        "aktivity": [
          "lupa"
        ],
        "text": "Při kliknutí levým tlačítkem do obrazu lupa přiblíží část obrazu ve výřezu."
      },
      "prameny": [
        "proc-demonstrovali/pic-00-1280w.jpg"
      ],
      "popisky": [
        "Německý nápis „Es lebe Masaryk!” znamená „Ať žije Masaryk!”, Český Krumlov, 1. května 1935. Zdroj: Museum Fotoatelier Seidel, Český Krumlov"
      ]
    },
    {
      "class": [
        "half-slide-previous"
      ],
      "zadani": {
        "hlavni": "Označte důležité prvky na fotografii a popište je.",
        "rozsirujici": ""
      },
      "napoveda": {
        "aktivity": [
          "svg"
        ],
        "text": "Kliknutím na snímek levým tlačítkem myši označujete bod. Nakliknutím na bod pravým tlačítkem otevřete menu s nabídkou úkonů: (T) doplnit textový komentář, (X) smazat nakliknutý objekt."
      },
      "svg": {
        "soubory": [
          {
            "id": "svg-1",
            "soubor": "proc-demonstrovali/pic-00-1024w.jpg",
            "barvy": [
              "blue"
            ],
            "funkce": [
              "text",
              "znacky"
            ]
          }
        ]
      },
      "popisky": [
        "Německý nápis „Es lebe Masaryk!” znamená „Ať žije Masaryk!”, Český Krumlov, 1. května 1935. Zdroj: Museum Fotoatelier Seidel, Český Krumlov"
      ]
    },
    {
      "class": [
        "half-slide-active"
      ],
      "zadani": {
        "hlavni": "Co se děje na fotografii?",
        "rozsirujici": ""
      },
      "napoveda": {
        "aktivity": [
          "text"
        ],
        "text": "Do boxu pro text zapisujete odpověď na otázku, nebo jiný komentář (dle zadání)."
      },
      "uzivatelskyText": {
        "otazky": [
          {
            "id": "text-1",
            "zadani": "Kdo jsou lidé na snímku a proč se shromáždili?",
            "instrukce": "Myslím si, že…",
            "minDelka": 2,
            "maxDelka": 400,
            "vyska": 5
          }
        ]
      }
    },
    {
      "class": [
        "half-slide-previous"
      ],
      "zadani": {
        "hlavni": "Přečtěte si popisku a prozkoumejte i další prameny. Nově zjištěné informace doplňte do fotografie červeně.",
        "rozsirujici": ""
      },
      "napoveda": {
        "aktivity": [
          "svg"
        ],
        "text": "Kliknutím na snímek levým tlačítkem myši označujete bod. Nakliknutím na bod pravým tlačítkem otevřete menu s nabídkou úkonů: (T) doplnit textový komentář, (X) smazat nakliknutý objekt."
      },
      "popisky": [
        "Na fotografii jsou členové polovojenského spolku Republikánská obrana. Jednalo se o organizaci německých sociálních demokratů (antifašistů), kteří představovali opozici proti Konrádu Henleinovi a jeho vizi odtrhnout pohraniční regiony od Československa. <br>V září 1938 příslušníci RO bojovali v pohraničí proti sudetoněmeckým povstalcům. Československé úřady jim pro tuto příležitost vydaly zbraně. Po vyhnání Čechů ze Sudet na podzim 1938 museli příslušníci RO z pohraničí rovněž odejít. Ovšem stejné úřady vrátily do zabraných Sudet asi 20 tisíc německých antifašistů, z nichž zhruba polovina skončila v koncentračních táborech nebo byla jinak perzekuována nacisty. <br>Zdroj: Terezie Vávrová, historička"
      ],
      "svg": {
        "nastaveni": {
          "layout": "horizontalni"
        },
        "galerie": [
          {
            "soubor": "proc-demonstrovali/pic-01-1280w.jpg",
            "popisek": "Český Krumlov, 1. května 1935. Zdroj: Museum Fotoatelier Seidel, Český Krumlov"
          },
          {
            "soubor": "proc-demonstrovali/pic-02-1280w.jpg",
            "popisek": "Český Krumlov, 1. května 1935. Zdroj: Museum Fotoatelier Seidel, Český Krumlov"
          },
          {
            "soubor": "proc-demonstrovali/pic-03-1280w.jpg",
            "popisek": "Český Krumlov, 1. května 1935. Zdroj: Museum Fotoatelier Seidel, Český Krumlov"
          },
          {
            "soubor": "proc-demonstrovali/pic-04-1280w.jpg",
            "popisek": "Český Krumlov, 1. května 1935. Zdroj: Museum Fotoatelier Seidel, Český Krumlov"
          }
        ],
        "soubory": [
          {
            "id": "svg-2",
            "soubor": "proc-demonstrovali/pic-00-1024w.jpg",
            "duplikovat": ["svg-1"],
            "barvy": [
              "red"
            ],
            "funkce": [
              "text",
              "znacky"
            ]
          }
        ]
      }
    },
    {
      "class": [
        "half-slide-active"
      ],
      "zadani": {
        "hlavni": "Zodpovězte otázky.",
        "rozsirujici": ""
      },
      "napoveda": {
        "aktivity": [
          "text"
        ],
        "text": "Do boxu pro text zapisujete odpověď na otázku, nebo jiný komentář (dle zadání)."
      },
      "uzivatelskyText": {
        "otazky": [
          {
            "id": "text-2",
            "zadani": "Z jakého důvodu mohla být tato demonstrace v Českém Krumlově svolána?",
            "instrukce": "Myslím si, že…",
            "minDelka": 2,
            "maxDelka": 400
          },
          {
            "id": "text-3",
            "zadani": "Na co byste se chtěli demonstrujících lidí zeptat?",
            "instrukce": "Myslím si, že…",
            "minDelka": 2,
            "maxDelka": 400
          }
        ]
      }
    }
  ]
}
